…
### Then, make a plot:

``` r
set.seed(8105)
ns = 2:50
B  = 10000

prob =
  tibble(n = ns) %>%
  mutate(p_shared = purrr::map_dbl(n, ~ mean(replicate(B, duplicate_birth(.x)))))

prob
```

    ## # A tibble: 49 × 2
    ##        n p_shared
    ##    <int>    <dbl>
    ##  1     2   0.0024
    ##  2     3   0.007 
    ##  3     4   0.0173
    ##  4     5   0.0258
    ##  5     6   0.0378
    ##  6     7   0.0539
    ##  7     8   0.0755
    ##  8     9   0.0925
    ##  9    10   0.121 
    ## 10    11   0.138 
    ## # ℹ 39 more rows
…
